\relax 
\@setckpt{preamble.inc}{
\setcounter{page}{1}
\setcounter{equation}{0}
\setcounter{enumi}{0}
\setcounter{enumii}{0}
\setcounter{enumiii}{0}
\setcounter{enumiv}{0}
\setcounter{footnote}{0}
\setcounter{mpfootnote}{0}
\setcounter{totalpage}{0}
\setcounter{totaltable}{0}
\setcounter{totalfigure}{0}
\setcounter{totalbib}{0}
\setcounter{chapter}{0}
\setcounter{section}{0}
\setcounter{subsection}{0}
\setcounter{subsubsection}{0}
\setcounter{parentequation}{0}
\setcounter{ContinuedFloat}{0}
\setcounter{figure}{0}
\setcounter{table}{0}
\setcounter{LT@tables}{0}
\setcounter{LT@chunks}{0}
\setcounter{pp@next@reset}{1}
\setcounter{@fnserial}{0}
\setcounter{Item}{0}
\setcounter{Hfootnote}{0}
\setcounter{bookmark@seq@number}{0}
\setcounter{AM@survey}{0}
}
